f=12x1+7x2+18x3+10x4+0->max
3
1x1+2x2+1x3+0x4<=18
1x1+1x2+2x3+1x4<=30
1x1+3x2+3x3+2x4<=40

f=18x1+30x2+40x3+0->min
4
1x1+1x2+1x3>=12
2x1+1x2+3x3>=7
1x1+2x2+3x3>=18
0x1+1x2+2x3>=10







f=18x1+30x2+40x3+0->min
4
1x1+1x2+1x3>=12
2x1+1x2+3x3>=7
1x1+2x2+3x3>=18
0x1+1x2+2x3>=10

f=12x1+7x2+18x3+10x4+0->max
3
1x1+2x2+1x3<=18
1x1+1x2+2x3+1x4<=30
1x1+3x2+3x3+2x4<=40

f=4x1+5x2+9x3+11x4+0->max
3
1x1+1x2+1x3+1x4<=15
7x1+5x2+3x3+2x4<=120
3x1+5x2+10x3+15x4<=100

f=15x1+120x2+100x3+0->min
4
1x1+7x2+3x3>=4
1x1+5x2+5x3>=5
1x1+3x2+10x3>=9
1x1+2x2+15x3>=11






f=0x1+0x2+0x3+0x4+0x5+0x6+0x7+1x8+0->max
4
1x1+1x2+1x3+1x4+0x5+0x6+0x7+0x8=50
0x1+0x2+0x3+0x4+1x5+1x6+1x7+0x8=200
1.5x1+1x2+0.5x3+0x4+1x5+0.5x6+0x7-1x8>=0
0x1+2x2+3x3+5x4+0x5+1x6+3x7-1x8>=0

f=1x1+2x2+0->max
3
1x1-1x2<=-1
1x1-1x2>=-3
1x1+0x2<=3
second

f=2x1-3x2+1->min
3
1x1+1x2>=4
2x1-1x2>=1
1x1-2x2<=1
first

f=-3x1-2x2+0->max
2
1x1+1x2<=10
1x1+0x2>=4
third

f=1x1-1x2+0->min
3
-4x1+1x2<=4
1x1-2x2<=-6
1x1+1x2<=6
fourth

f=4x1+5x2+9x3+11x4+0->max
3
1x1+1x2+1x3+1x4<=15
7x1+5x2+3x3+2x4<=120
3x1+5x2+10x3+15x4<=100
sixth

f=1x1-1x2+0->max
3
-2x1+1x2<=2
1x1-1x2<=-8
1x1+1x2<=5
fifth



f-=12x1+7x2+18x3+10x4+0->max
3
1x1+2x2+1x3+0x4<=18
1x1+1x2+2x3+1x4<=30
1x1+3x2+3x3+2x4<=40

